{"data":[{"id":"cmlrtkpu400016zsbfm1c2vy1","title":"Introduction to Offline Web Apps","slug":"intro-to-offline-apps","order":1,"updatedAt":"2026-02-18T10:35:19.412Z"},{"id":"cmlrtkpue00026zsbazfe94k6","title":"Mastering Database Migrations","slug":"mastering-migrations","order":2,"updatedAt":"2026-02-18T10:35:19.416Z"},{"id":"cmlrvavk90002risbqw6miodu","title":"Building Resilient APIs","slug":"building-resilient-apis","order":3,"updatedAt":"2026-02-18T10:35:19.417Z"}],"pagination":{"page":1,"limit":3,"total":10,"totalPages":4,"hasMore":true}}