{"data":[{"id":"cmlszlh750000gosbuix8go1b","name":"API Test User","email":"apitest@orbit.edu","createdAt":"2026-02-19T04:54:40.721Z","_count":{"progress":0}},{"id":"cmlrwi4ls000bq9sbc9r3iwu7","name":"Benchmark User 2","email":"benchmark-2-1771411219400@orbit.edu","createdAt":"2026-02-18T10:40:19.408Z","_count":{"progress":10}},{"id":"cmlrwi4kq0000q9sbhl7em2w3","name":"Benchmark Test User","email":"benchmark-1771411219312@orbit.edu","createdAt":"2026-02-18T10:40:19.370Z","_count":{"progress":10}},{"id":"cmlrwdsjt001f5isb0ct8jl8n","name":"Benchmark User 2","email":"benchmark-2-1771411017153@orbit.edu","createdAt":"2026-02-18T10:36:57.161Z","_count":{"progress":10}},{"id":"cmlrwdsiz00145isbcujy1kl0","name":"Benchmark Test User","email":"benchmark-1771411017089@orbit.edu","createdAt":"2026-02-18T10:36:57.131Z","_count":{"progress":10}}],"pagination":{"page":1,"limit":5,"total":11,"totalPages":3,"hasMore":true}}