{"data":[{"id":"cmlszmh5u0002gosbbsisfcq4","completed":false,"score":null,"updatedAt":"2026-02-19T04:55:27.330Z","lesson":{"id":"cmlrtkpu400016zsbfm1c2vy1","title":"Introduction to Offline Web Apps","slug":"intro-to-offline-apps","order":1},"user":{"id":"cmlszmh520001gosbee4lqvy7","name":"Enrolled Student","email":"enrolled@orbit.edu"}},{"id":"cmlszmh5u0003gosb0t9kex2u","completed":false,"score":null,"updatedAt":"2026-02-19T04:55:27.330Z","lesson":{"id":"cmlrtkpue00026zsbazfe94k6","title":"Mastering Database Migrations","slug":"mastering-migrations","order":2},"user":{"id":"cmlszmh520001gosbee4lqvy7","name":"Enrolled Student","email":"enrolled@orbit.edu"}},{"id":"cmlszmh5u0004gosb6j0veyz6","completed":false,"score":null,"updatedAt":"2026-02-19T04:55:27.330Z","lesson":{"id":"cmlrvavk90002risbqw6miodu","title":"Building Resilient APIs","slug":"building-resilient-apis","order":3},"user":{"id":"cmlszmh520001gosbee4lqvy7","name":"Enrolled Student","email":"enrolled@orbit.edu"}}],"pagination":{"page":1,"limit":3,"total":10,"totalPages":4,"hasMore":true}}